[
  {
    "description": "S.O. amigable para máquinas virtuales, basado en Debian y Tor, enfocado en la anonimidad, privacidad y seguridad."
  },
  {
    "description": " Android application compatible with ZX2C4's Pass command line application.",
    "slug": "android-password-store",
    "url": "https://github.com/zeapo/Android-Password-Store/blob/master/README.md",
    "wikipedia_url": ""
  },
  {
    "description": "Implementación de PBX con soporte VoIP/SIP.",
    "slug": "asterisk",
    "url": "http://www.asterisk.org/",
    "wikipedia_url": "https://en.wikipedia.org/wiki/Asterisk_%28PBX%29"
  },
  {
    "description": "Amplia gama de servicios libres y con privacidad en mente.",
    "slug": "autistici-inventati",
    "url": "https://www.autistici.org/",
    "wikipedia_url": ""
  },
  {
    "description": "Moneda P2P digital sin autoridad centralizada.",
    "notes": "Please note that new, digital currencies may be very volatile. Complete loss of your investment is possible for a number of reasons (software errors or attacks, identity theft, etc.). Be prepared!",
    "slug": "bitcoin",
    "url": "http://bitcoin.org",
    "wikipedia_url": "https://en.wikipedia.org/wiki/Bitcoin"
  },
  {
    "description": "Servicio de mensajería cifrada y descentralizada basada en tecnología bitcoin.",
    "notes": "Bitmessage is a promising alternative to email, but it has not yet been audited by security professionals. Use at your own risk. If you decide to try out Bitmessage, make sure to generate a completely random ID to greatly reduce the probability of ID collisions.",
    "slug": "bitmessage",
    "url": "https://bitmessage.org/wiki/Main_Page",
    "wikipedia_url": "https://en.wikipedia.org/wiki/Bitmessage"
  },
  {
    "description": "Plataforma computacional de clase empresarial 100% compatible con RHEL",
    "slug": "centos",
    "url": "https://www.centos.org/",
    "wikipedia_url": "https://en.wikipedia.org/wiki/CentOS"
  },
  {
    "description": "OMEMO or OTR encrypted IM for iOS.",
    "slug": "chatsecure",
    "url": "https://chatsecure.org/",
    "wikipedia_url": "https://en.wikipedia.org/wiki/The_Guardian_Project_(software)#ChatSecure"
  },
  {
    "description": "Cjdns is a networking protocol, a system of digital rules for message exchange between computers. “Instead of letting other computers connect to you through a shared IP address which anyone can use, cjdns only lets computers talk to one other after they have verified each other cryptographically. ",
    "slug": "cjdns",
    "url": "https://github.com/cjdelisle/cjdns",
    "wikipedia_url": "https://en.wikipedia.org/wiki/Cjdns"
  },
  {
    "description": "Conversations is an open source XMPP/Jabber client for Android 4.0+ smart phones.",
    "slug": "conversations",
    "url": "https://github.com/siacs/Conversations",
    "wikipedia_url": ""
  },
  {
    "description": "Mensajería instantánea privada y cifrada desde tu navegador.",
    "slug": "cryptocat",
    "url": "https://crypto.cat/",
    "wikipedia_url": "https://en.wikipedia.org/wiki/Cryptocat"
  },
  {
    "description": "Self-hosted, zero-knowledge, real-time collaborative documents.",
    "notes": "Encryption carried out in your web browser protects the data from the server, the cloud, and the NSA. The secret encryption key is stored in the URL fragment identifier which is never sent to the server but is available to javascript, so by sharing the URL, you give authorization to others who want to participate. Users must still take care to share links over an end-to-end-encrypted medium for best effect.",
    "slug": "cryptpad",
    "url": "https://cryptpad.fr",
    "wikipedia_url": ""
  },
  {
    "description": "LUKS es una capa conveniente y fácil de usar encima de dm-crypt.",
    "notes": "Gentoo maintains [a guide](https://wiki.gentoo.org/wiki/DM-Crypt_LUKS) for dm-crypt with LUKS.\n\nArch Linux also maintains [a guide](https://wiki.archlinux.org/index.php/Dm-crypt_with_LUKS) to dm-crypt with LUKS.\n\nSlackware Linux also maintains [a guide](http://ftp.slackware.com/pub/slackware/slackware-14.1/README_CRYPT.TXT) to dm-crypt with LUKS.\n\ndm-crypt is available for DragonFly BSD.",
    "slug": "cryptsetup",
    "url": "https://gitlab.com/cryptsetup/cryptsetup",
    "wikipedia_url": "https://en.wikipedia.org/wiki/Dm-crypt"
  },
  {
    "description": "Popular distribución ética de GNU/Linux.",
    "slug": "debian",
    "url": "http://debian.org",
    "wikipedia_url": "https://en.wikipedia.org/wiki/Debian"
  },
  {
    "description": "Protégete contra rastreo a través de entrega de contenido centralizado “gratis”. Previene interferencia de redes como Google Hosted Libraries, sirve archivos locales para prevenir que sitios se rompan. Complementa bloqueadores regulares.",
    "notes": "- Protege la privacidad al evadir una larga red de entrega que dice ofrecer sus servicios gratuitamente.\n- Complementa las aplicaciones de bloqueo regulares tales como uBlock Origin, Privacy Badger, y otros.\n- Funciona directamente al ser instalado; Absolutamente ninguna configuración previamente requerida.\n\nDecentraleyes no es una bala de plata, pero sí previene que muchos sitios web envíen este tipo de peticiones. Así también, Decentraleyes puede bloquear peticiones para cualquier recurso CDN que no se pueda encontrar.",
    "slug": "decentraleyes",
    "url": "https://decentraleyes.org",
    "wikipedia_url": ""
  },
  {
    "description": "Red social distribuida conducida comunitariamente.",
    "slug": "diaspora",
    "url": "https://diasporafoundation.org/",
    "wikipedia_url": "https://en.wikipedia.org/wiki/Diaspora_%28software%29"
  },
  {
    "description": "Herramienta para asegurar comunicaciones entre un cliente y un solucionador de DNS.",
    "slug": "dnscrypt",
    "url": "https://dnscrypt.info",
    "wikipedia_url": ""
  },
  {
    "description": "Búsquedas anónimas y sin registro.",
    "notes": "DuckDuckGo is a software-as-a-service (SaaS) hosted around the world that provides you with anonymous search results from [these sources](https://dukgo.com/help/en_US/results/sources). DDG open source components are [available here](https://github.com/duckduckgo).\n\nThere is also a DuckDuckGo hidden service at [3g2upl4pq6kufc4m.onion](http://3g2upl4pq6kufc4m.onion) for Tor users.",
    "slug": "duckduckgo",
    "url": "https://duckduckgo.com/",
    "wikipedia_url": "https://en.wikipedia.org/wiki/DuckDuckGo"
  },
  {
    "description": "POSIX-compliant enterprise cryptographic stacked filesystem for GNU/Linux.",
    "slug": "ecryptfs",
    "url": "http://ecryptfs.org/",
    "wikipedia_url": "https://en.wikipedia.org/wiki/ECryptfs"
  },
  {
    "description": "Servidor XMPP escrito en Erlang/OTP para GNU/Linux y macOS.",
    "slug": "ejabberd",
    "url": "http://www.ejabberd.im/",
    "wikipedia_url": "https://en.wikipedia.org/wiki/Ejabberd"
  },
  {
    "description": "Un agregado de OpenPGP para Thunderbird/Icedove.",
    "notes": "[Here is a guide](https://securityinabox.org/en/guide/thunderbird/linux/) by Security In A Box to encrypting your email with Mozilla Thunderbird, GNU Privacy Guard (GPG), and Enigmail. Also read the [Email Self-Defense guide](https://emailselfdefense.fsf.org) by the Free Software Foundation to learn how to encrypt your email messages.",
    "slug": "enigmail",
    "url": "https://www.enigmail.net/home/index.php",
    "wikipedia_url": "https://en.wikipedia.org/wiki/Enigmail"
  },
  {
    "description": "Servidor de hojas de cálculo multiusuario.",
    "notes": "The EtherCalc online service encrypts your data transmission with HTTPS, but data may be read by anyone who can guess the URL. Download and run your own EtherCalc server if you care about privacy.",
    "slug": "ethercalc",
    "url": "http://ethercalc.net/",
    "wikipedia_url": ""
  },
  {
    "description": "Aplicaciones libres y de código abierto para Android, alternativa a la tienda de aplicaciones de Google.",
    "slug": "f-droid",
    "url": "https://f-droid.org/",
    "wikipedia_url": "https://en.wikipedia.org/wiki/F-Droid"
  },
  {
    "description": "Distribución de GNU/Linux rápida, estable y potente.",
    "slug": "fedora",
    "url": "https://fedoraproject.org/",
    "wikipedia_url": "https://es.wikipedia.org/wiki/Fedora_%28distribuci%C3%B3n_Linux%29"
  },
  {
    "description": "Un sistema operativo libre derivado de BSD.",
    "slug": "freebsd",
    "url": "https://www.freebsd.org/",
    "wikipedia_url": "https://en.wikipedia.org/wiki/FreeBSD"
  },
  {
    "description": "FreedomBox integra protección de privacidad en un económico servidor enchufable para que todos puedan tener privacidad.",
    "slug": "freedombox",
    "url": "https://www.freedomboxfoundation.org/",
    "wikipedia_url": "https://en.wikipedia.org/wiki/FreedomBox"
  },
  {
    "description": "FreeOTP is a two-factor authentication application for systems utilizing one-time password protocols.",
    "notes": "FreeOTP adds a second layer of security for your online accounts. This works by generating one-time passwords on your mobile devices which can be used in conjunction with your normal password to make your login nearly impossible to hack.",
    "slug": "freeotp",
    "url": "https://freeotp.github.io/",
    "wikipedia_url": "https://en.wikipedia.org/wiki/FreeOTP"
  },
  {
    "description": "Conmutador virtual multiplataforma con soporte para VoIP/SIP.",
    "slug": "freeswitch",
    "url": "https://www.freeswitch.org/",
    "wikipedia_url": "https://en.wikipedia.org/wiki/FreeSWITCH"
  },
  {
    "description": "Iniciativa no comercial comunitaria para apoyar redes radiofónicas libres en todo el mundo.",
    "slug": "freifunk",
    "url": "http://wiki.freifunk.net/Kategorie:English",
    "wikipedia_url": "https://en.wikipedia.org/wiki/Freifunk"
  },
  {
    "description": "Servidor web social libre, privado, distribuido y federado.",
    "slug": "friendica",
    "url": "http://friendica.com/",
    "wikipedia_url": "https://en.wikipedia.org/wiki/Friendica"
  },
  {
    "description": "Cliente ligero de mensajería instantánea para GNU/Linux y Windows—soporta OTR con un agregado.",
    "slug": "gajim",
    "url": "http://gajim.org/",
    "wikipedia_url": "https://en.wikipedia.org/wiki/Gajim"
  },
  {
    "description": "Subsistema de cifrado de disco incluido en el sistema operativo FreeBSD.",
    "slug": "geli",
    "url": "http://www.freebsd.org/cgi/man.cgi?query=geli&sektion=8",
    "wikipedia_url": "https://en.wikipedia.org/wiki/Geli_%28software%29"
  },
  {
    "description": "Sincroniza directorios en cada uno de tus equipos y discos.",
    "slug": "git-annex",
    "url": "https://git-annex.branchable.com/",
    "wikipedia_url": ""
  },
  {
    "description": "Self hosted git server.",
    "slug": "gitlab",
    "url": "https://about.gitlab.com/",
    "wikipedia_url": "https://en.wikipedia.org/wiki/GitLab"
  },
  {
    "description": "Implementación libre y gratuita de OpenPGP.",
    "slug": "gnu-privacy-guard",
    "url": "http://www.gnupg.org/",
    "wikipedia_url": "https://en.wikipedia.org/wiki/GNU_Privacy_Guard"
  },
  {
    "description": "Red inalámbrica abierta, libre y neutral para todos.",
    "slug": "guifinet",
    "url": "https://guifi.net/",
    "wikipedia_url": "https://en.wikipedia.org/wiki/Guifi.net"
  },
  {
    "description": "Cliente IRC multiplataforma.",
    "notes": "HexChat does not offer encrypted IRC by default. You need to enable the FiSHLiM plugin for IRC message encryption.",
    "slug": "hexchat",
    "url": "http://hexchat.github.io/",
    "wikipedia_url": ""
  },
  {
    "description": "Cifra tus comunicaciones en millones de sitios forzándolos a usar HTTPS.",
    "slug": "https-everywhere",
    "url": "https://www.eff.org/https-everywhere",
    "wikipedia_url": "https://en.wikipedia.org/wiki/HTTPS_Everywhere"
  },
  {
    "description": "Hubzilla is a powerful platform for creating interconnected websites (hubs) featuring a decentralized identity, communications, and permissions framework built using common webserver technology.",
    "slug": "hubzilla",
    "url": "http://hubzilla.org/",
    "wikipedia_url": ""
  },
  {
    "description": "I2P es una red de capa anónima - una red dentro de una red. Está pensada para proteger la comunicación del seguimiento de las redes de vigilancia y la monitorización por terceras partes como los ISPs (proveedores de Internet).",
    "slug": "i2p",
    "url": "https://geti2p.net/es/",
    "wikipedia_url": "https://es.wikipedia.org/wiki/I2P"
  },
  {
    "description": "Plataforma de mensajería altamente escalable y configurable basada en MTA qmail.",
    "slug": "indimail",
    "url": "http://www.indimail.org/",
    "wikipedia_url": "https://en.wikipedia.org/wiki/User:Mbhangui/IndiMail"
  },
  {
    "description": "Instala y configura automáticamente paquetes para servidor de correo en GNU/Linux y *BSD.",
    "slug": "iredmail",
    "url": "http://www.iredmail.org/",
    "wikipedia_url": ""
  },
  {
    "description": "Conversaciones cifradas de texto, audio y video para múltiples plataformas.",
    "slug": "jitsi",
    "url": "https://jitsi.org/",
    "wikipedia_url": "https://en.wikipedia.org/wiki/Jitsi"
  },
  {
    "description": "Aplicación para Android con soporte de PGP integrado.",
    "slug": "k-9-mail",
    "url": "https://github.com/k9mail/k-9",
    "wikipedia_url": "https://en.wikipedia.org/wiki/K-9_Mail"
  },
  {
    "description": "Servidor de VoIP/SIP libre y de código abierto.",
    "slug": "kamailio",
    "url": "http://www.kamailio.org/w/",
    "wikipedia_url": ""
  },
  {
    "description": "Application for people with extremely high demands on secure personal data management. Saves many different types of information such as usernames, passwords, urls, attachments and comments in one single database.",
    "slug": "keepassxc",
    "url": "https://keepassxc.org/",
    "wikipedia_url": "https://en.wikipedia.org/wiki/KeePassXC"
  },
  {
    "description": "Servidor grupal para correo, calendarios, direcciones y sincronización con teléfonos móviles.",
    "slug": "kolab",
    "url": "https://kolab.org/",
    "wikipedia_url": "https://en.wikipedia.org/wiki/Kolab"
  },
  {
    "description": "Secure Kolab accounts hosted in Switzerland for 8.99 CHF per month or 4.55 CHF for email-only accounts.",
    "notes": "Kolab Now is hosted in Switzerland and benefits from the [strong Swiss privacy laws](https://KolabNow.com/privacy). It is run exclusively with Free Software and using the service supports the development of [Kolab](https://kolab.org).\n\nAlso, you can export all your data at any time and the terms of service received the best rating from [ToS;DR](http://tosdr.org/#mykolab-com).\n\nThe service uses [Perfect Forward Secrecy](https://kolabnow.com/faq?nid=189) and identifying information [is stripped](https://kolabnow.com/faq?nid=190) from email headers.",
    "slug": "kolabnow",
    "url": "https://kolabnow.com/",
    "wikipedia_url": "https://en.wikipedia.org/wiki/MyKolab"
  },
  {
    "description": "A GNU/Linux-libre distribution for embedded devices.",
    "slug": "librecmc",
    "url": "https://librecmc.org/",
    "wikipedia_url": "https://en.wikipedia.org/wiki/LibreCMC"
  },
  {
    "description": "Telefonía en línea (VoIP) cifrada, con soporte para audio y video.",
    "notes": "Encryption is only supported for voice and video, but not for instant messaging.",
    "slug": "linphone",
    "url": "https://www.linphone.org/",
    "wikipedia_url": "https://en.wikipedia.org/wiki/Linphone"
  },
  {
    "description": "Litecoin (signo: Ł; abr.: LTC) es una Criptodivisa sustentada por la red P2P, y un proyecto de software de código abierto publicado bajo la licencia MIT.1 Inspirada y prácticamente idéntica en su aspecto técnico2 a Bitcoin (BTC), la creación y transferencia de Litecoin se basa en un protocolo criptográfico de código abierto que no es administrado por ninguna autoridad central.",
    "notes": "Please note that new, digital currencies may be very volatile. Complete loss of your investment is possible for a number of reasons (software errors or attacks, identity theft, etc.). Be prepared!",
    "slug": "litecoin",
    "url": "https://litecoin.org/",
    "wikipedia_url": "https://en.wikipedia.org/wiki/Litecoin"
  },
  {
    "description": "Cifrado OpenPGP para servicios webmail.",
    "slug": "mailvelope",
    "url": "http://www.mailvelope.com/",
    "wikipedia_url": ""
  },
  {
    "description": "Globo terráqueo virtual de software libre y atlas mundial.",
    "slug": "marble",
    "url": "http://marble.kde.org/",
    "wikipedia_url": "https://en.wikipedia.org/wiki/Marble_%28software%29"
  },
  {
    "description": "Análisis de estadísticas web, libre y auto-hospedado.",
    "slug": "matomo",
    "url": "https://matomo.org/",
    "wikipedia_url": "https://en.wikipedia.org/wiki/Matomo_(software)"
  },
  {
    "description": "Servidor XMPP basado en Prosody, con características avanzadas de administración y microblog.",
    "slug": "metronome",
    "url": "https://metronome.im",
    "wikipedia_url": "https://en.wikipedia.org/wiki/Metronome_IM"
  },
  {
    "description": "Monero is a secure, private, untraceable P2P currency.",
    "notes": "Please note that new, digital currencies may be volatile. Complete loss of your investment is possible for a number of reasons (software errors or attacks, identity theft, etc.). Be prepared!",
    "slug": "monero",
    "url": "https://getmonero.org",
    "wikipedia_url": "https://en.wikipedia.org/wiki/Monero_(cryptocurrency)"
  },
  {
    "description": "Servidor de red social descentralizado.",
    "slug": "movim",
    "url": "https://movim.eu/",
    "wikipedia_url": "https://en.wikipedia.org/wiki/Movim"
  },
  {
    "description": "Navegador web veloz, flexible y seguro de fuente libre y abierta con un gran sistema de extensiones.",
    "slug": "mozilla-firefox"
  },
  {
    "description": "Aplicación multiplataforma de correo electrónico con cifrado a través de la extensión Enigmail.",
    "notes": "Thunderbird does not encrypt your email by default. [Here is a guide](https://securityinabox.org/en/guide/thunderbird/linux/) by Security In A Box to encrypting your email with Mozilla Thunderbird, GNU Privacy Guard (GPG), and Enigmail.\n\nThunderbird can optionally connect over Tor with the TorBirdy addon.\n\nWhile Thunderbird can be used as a chat and IRC client, it does not offer encrypted messaging.",
    "slug": "mozilla-thunderbird",
    "url": "https://www.mozilla.org/en-US/thunderbird/",
    "wikipedia_url": "https://en.wikipedia.org/wiki/Mozilla_Thunderbird"
  },
  {
    "description": "Conversaciones de voz cifradas multiusuario de baja latencia.",
    "slug": "mumble",
    "url": "http://www.mumble.info/",
    "wikipedia_url": "https://en.wikipedia.org/wiki/Mumble_%28software%29"
  },
  {
    "description": "DNS distribuido para el dominio de nivel superior .bit basado en tecnología de Bitcoin.",
    "slug": "namecoin",
    "url": "https://namecoin.org",
    "wikipedia_url": "https://en.wikipedia.org/wiki/Namecoin"
  },
  {
    "description": "Activa JavaScript, Java y Flash solamente en los sitios en que confíes.",
    "slug": "noscript",
    "url": "http://noscript.net/",
    "wikipedia_url": "https://en.wikipedia.org/wiki/NoScript"
  },
  {
    "description": "A free dynamic DNS service. Use it to update an easy DNS name with your changing/hard-to-remember IP address. As we use the standard protocols, we support a lot of routers / update clients and we even actively help you to configure them. We care for your security, privacy and comfort. You can simply use the free service available on our homepage or, if you prefer, you can also run the software on your own server.",
    "slug": "nsupdate-info",
    "url": "https://nsupdate.info/",
    "wikipedia_url": "https://en.wikipedia.org/wiki/Nsupdate"
  },
  {
    "description": "Navega la web a través de la red de Tor con este navegador de software libre para iOS.",
    "slug": "onion-browser",
    "url": "https://mike.tig.as/onionbrowser/",
    "wikipedia_url": ""
  },
  {
    "description": "OpenKeychain is an OpenPGP implementation for Android.",
    "slug": "open-keychain",
    "url": "https://www.openkeychain.org/",
    "wikipedia_url": ""
  },
  {
    "description": "The Open Source Routing Machine or OSRM is a C++ implementation of a high-performance routing engine for shortest paths in road networks. Licensed under the permissive 2-clause BSD license, OSRM is a free network service. OSRM supports Linux, FreeBSD, Windows, and Mac platform.",
    "notes": "OSRM should be installed and run locally on your PC to avoid potential data leaks from the unencrypted online service.",
    "slug": "open-source-routing-machine",
    "url": "http://project-osrm.org/",
    "wikipedia_url": "https://en.wikipedia.org/wiki/Open_Source_Routing_Machine"
  },
  {
    "description": "Alternativa libre y abierta para el análisis de estadísticas web.",
    "slug": "open-web-analytics",
    "url": "http://www.openwebanalytics.com/",
    "wikipedia_url": "https://en.wikipedia.org/wiki/Open_Web_Analytics"
  },
  {
    "description": "Un sistema operativo BSD seguro.",
    "slug": "openbsd",
    "url": "http://openbsd.org/",
    "wikipedia_url": "https://en.wikipedia.org/wiki/OpenBSD"
  },
  {
    "description": "Servidor XMPP multiplataforma escrito en Java.",
    "slug": "openfire",
    "url": "http://www.igniterealtime.org/projects/openfire/",
    "wikipedia_url": "https://en.wikipedia.org/wiki/Openfire"
  },
  {
    "description": "Proveedor de DNS abierto, democrático y anti-censura.",
    "notes": "OpenNIC has not adopted an official policy concerning log query privacy/anonymization. More information [here](https://wiki.opennic.org/opennic:tier2).",
    "slug": "opennic",
    "url": "https://www.opennic.org/",
    "wikipedia_url": "https://en.wikipedia.org/wiki/OpenNIC"
  },
  {
    "description": "Mapa mundial colaborativo y libre.",
    "slug": "openstreetmap",
    "url": "http://www.openstreetmap.org/",
    "wikipedia_url": "https://en.wikipedia.org/wiki/OpenStreetMap"
  },
  {
    "description": "Cliente VPN de software libre.",
    "slug": "openvpn",
    "url": "http://openvpn.net/index.php/open-source.html",
    "wikipedia_url": "https://en.wikipedia.org/wiki/OpenVPN"
  },
  {
    "description": "A GNU/Linux distribution for embedded devices.",
    "slug": "openwrt",
    "url": "https://openwrt.org/",
    "wikipedia_url": "https://en.wikipedia.org/wiki/OpenWrt"
  },
  {
    "description": "Las características y funcionalidad de Tor pero para Android.",
    "slug": "orbot",
    "url": "https://guardianproject.info/apps/orbot/",
    "wikipedia_url": "https://en.wikipedia.org/wiki/Orbot"
  },
  {
    "description": "OsmAnd (OSM automatizados direcciones de navegación) es un mapa y aplicación de navegación que utiliza los datos de OpenStreetMap.",
    "slug": "osmand",
    "url": "http://osmand.net/",
    "wikipedia_url": "https://en.wikipedia.org/wiki/OsmAnd"
  },
  {
    "description": "Password Safe (Android Port). Stores passwords, site URLs, email addresses, notes and much more into encrypted container file, so you only need to remember one master password. Can generate random passwords (with optional site-specific policies).",
    "slug": "passwdsafe",
    "url": "http://passwdsafe.sourceforge.net/",
    "wikipedia_url": ""
  },
  {
    "description": "Simple password manager using gpg and ordinary unix directories.",
    "slug": "password-store",
    "url": "https://www.passwordstore.org/",
    "wikipedia_url": ""
  },
  {
    "description": "Password Safe (Windows/Linux), designed by Bruce Schneier. Stores passwords, site URLs, email addresses, notes and much more into encrypted container file, so you only need to remember one master password. Can generate random passwords (with optional site-specific policies).",
    "slug": "passwordsafe",
    "url": "http://pwsafe.org/",
    "wikipedia_url": "https://en.wikipedia.org/wiki/Password_Safe"
  },
  {
    "description": "Plataforma auto-hospedada para álbumes fotográficos",
    "notes": "Piwigo does not encrypt any of your data by default.",
    "slug": "piwigo",
    "url": "http://piwigo.org/",
    "wikipedia_url": "https://en.wikipedia.org/wiki/Piwigo"
  },
  {
    "description": "Tracking blocker that tries to learn who is spying on you and then blocks these ads and invisible trackers.",
    "notes": "Privacy Badger may be less effective than a classic blacklist based solution such as uBlock or Disconnect. Advertisers can automatically unblock themselves by claiming not to track you.",
    "slug": "privacy-badger",
    "url": "https://www.eff.org/privacybadger",
    "wikipedia_url": "https://en.wikipedia.org/wiki/Privacy_Badger"
  },
  {
    "description": "Servidor XMPP ligero y flexible escrito en Lua.",
    "slug": "prosody",
    "url": "https://prosody.im/",
    "wikipedia_url": "https://en.wikipedia.org/wiki/Prosody_%28software%29"
  },
  {
    "description": "Cliente multiplataforma de mensajería instantánea para usuarios avanzados con soporte OTR incluído.",
    "slug": "psi",
    "url": "http://psi-plus.com/",
    "wikipedia_url": "https://en.wikipedia.org/wiki/Psi_%28instant_messaging_client%29"
  },
  {
    "description": "Servidor auto-hospedado de flujos sociales.",
    "slug": "pumpio",
    "url": "http://pump.io/",
    "wikipedia_url": "https://en.wikipedia.org/wiki/Pump.io"
  },
  {
    "description": "S.O. basado en Fedora/Xen diseñada para proporcionar fuerte seguridad a través de aislamiento.",
    "slug": "qubes",
    "url": "https://www.qubes-os.org/",
    "wikipedia_url": "https://en.wikipedia.org/wiki/Qubes_OS"
  },
  {
    "description": "Distribución de Android completamente libre basada en LineageOS.",
    "slug": "replicant",
    "url": "http://replicant.us/",
    "wikipedia_url": "https://en.wikipedia.org/wiki/Replicant_%28operating_system%29"
  },
  {
    "description": "Plataforma de comunicaciones P2P, libre y segura, que ofrece mensajería instantánea, foros, VoIP, compartición de archivos y más.",
    "notes": "Note that RetroShare has not been thoroughly audited by security professionals for possible security issues.\n\nFor those of you without a server, RetroShare is probably the easiest way to start your own encrypted social network.",
    "slug": "retroshare",
    "url": "http://retroshare.net",
    "wikipedia_url": "https://en.wikipedia.org/wiki/RetroShare"
  },
  {
    "description": "Ring is a secure and distributed voice, video and chat communication platform that requires no centralized server and leaves the power of privacy in the hands of the user.",
    "slug": "ring",
    "url": "https://ring.cx/",
    "wikipedia_url": "https://en.wikipedia.org/wiki/Ring_(software)"
  },
  {
    "description": "Riot is a secure collaboration app for group chat, file transfer and voice/video conferencing built on the decentralized Matrix ecosystem, providing bridges and integrations to centralized services such as IRC, Slack, Gitter, etc",
    "notes": "End-to-end encryption is in beta on Web as of Nov 5th 2016, with other platforms following week of Nov 14th",
    "slug": "riot",
    "url": "https://riot.im/",
    "wikipedia_url": "https://en.wikipedia.org/wiki/Matrix_(communication_protocol)"
  },
  {
    "description": "Cuentas de correo seguras y privadas.",
    "notes": "Riseup's services may also be accessed via their Tor Hidden Service addresses. A list is [available here](https://www.riseup.net/en/tor#riseups-tor-hidden-services).",
    "slug": "riseup",
    "url": "https://riseup.net/en",
    "wikipedia_url": ""
  },
  {
    "description": "Herramientas de comunicación multipropósito, con varias interfaces.",
    "slug": "salut-a-toi",
    "url": "http://sat.goffi.org/",
    "wikipedia_url": ""
  },
  {
    "description": "The personal, minimalist, super-fast, no-database delicious clone.",
    "slug": "shaarli",
    "url": "https://github.com/shaarli/Shaarli/",
    "wikipedia_url": ""
  },
  {
    "description": "A fork of TextSecure with SMS encryption.",
    "slug": "silence",
    "url": "https://silence.im/",
    "wikipedia_url": ""
  },
  {
    "description": "Búsquedas privadas sin iniciar sesión.",
    "slug": "startpage"
  },
  {
    "description": "Continuous decentralized file synchronization.",
    "notes": "Syncthing is a self-hosted file sharing platform, so none of your data is ever stored anywhere other than on your computers. There is no central server that might be compromised, legally or illegally. All communication is secured using TLS. The encryption used includes perfect forward secrecy to prevent any eavesdropper from gaining access to your data. Every node is identified by a strong cryptographic certificate. Only nodes you have explicitly allowed can connect to your cluster.",
    "slug": "syncthing",
    "url": "https://syncthing.net/",
    "wikipedia_url": "https://en.wikipedia.org/wiki/Syncthing"
  },
  {
    "description": "Almacenamiento en la nube libre y abierto.",
    "slug": "tahoe-lafs",
    "url": "https://tahoe-lafs.org/trac/tahoe-lafs",
    "wikipedia_url": "https://en.wikipedia.org/wiki/Tahoe-LAFS"
  },
  {
    "description": "CD/USB en vivo diseñado para asegurar la privacidad y el anonimato.",
    "slug": "tails",
    "url": "https://tails.boum.org/",
    "wikipedia_url": "https://en.wikipedia.org/wiki/The_Amnesic_Incognito_Live_System"
  },
  {
    "description": "Servidor XMPP multiplataforma escrito en Java.",
    "slug": "tigase",
    "url": "http://www.tigase.org/",
    "wikipedia_url": "https://en.wikipedia.org/wiki/Tigase"
  },
  {
    "description": "Demonio libre que usa entunelamiento y criptografía para crear una red privada segura.",
    "slug": "tinc",
    "url": "http://tinc-vpn.org/",
    "wikipedia_url": "https://en.wikipedia.org/wiki/Tinc_%28protocol%29"
  },
  {
    "description": "The Onion Router, en su forma abreviada Tor, es un proyecto cuyo objetivo principal es el desarrollo de una red de comunicaciones distribuida de baja latencia y superpuesta sobre internet en la que el encaminamiento de los mensajes intercambiados entre los usuarios no revela su identidad, es decir, su dirección IP (anonimato a nivel de red) y que, además, mantiene la integridad y el secreto de la información que viaja por ella.",
    "slug": "tor",
    "url": "https://www.torproject.org/",
    "wikipedia_url": "https://en.wikipedia.org/wiki/Tor_%28anonymity_network%29"
  },
  {
    "description": "Navegación cifrada y anónima impulsada por la red Tor.",
    "slug": "tor-browser",
    "url": "https://www.torproject.org/projects/torbrowser.html.en",
    "wikipedia_url": "https://en.wikipedia.org/wiki/Tor_Browser"
  },
  {
    "description": "Complemento para hacer que Thunderbird/Icedove se conecte a Tor.",
    "notes": " TorBirdy is in beta and should be considered experimental. Please make sure that before using it, you are aware of the known issues and leaks by reading the “Before using TorBirdy” and “Known TorBirdy” Issues sections on the project website.",
    "slug": "torbirdy",
    "url": "https://trac.torproject.org/projects/tor/wiki/torbirdy",
    "wikipedia_url": ""
  },
  {
    "description": "Free and open-source, peer-to-peer, encrypted instant messaging and video calling software. The stated goal of the project is to provide secure yet easily accessible communication for everyone.",
    "notes": "Tox is a new encrypted communications system in the making. It is built upon a well known encryption library and has great potential, but it has not yet been audited by security professionals. Use at your own risk. If you decide to try out Tox, be sure to leave them feedback.\n\nTox does not yet have an official GUI but [several are recommended by the development team](https://wiki.tox.chat/Binaries).",
    "slug": "tox",
    "url": "https://tox.chat",
    "wikipedia_url": "https://en.wikipedia.org/wiki/Tox_(software)"
  },
  {
    "description": "Tunnelblick is a free, open source graphic user interface for OpenVPN on macOS. It provides easy control of OpenVPN client and/or server connections.",
    "slug": "tunnelblick",
    "url": "https://tunnelblick.net/",
    "wikipedia_url": ""
  },
  {
    "description": "An efficient blocker for Firefox and Chromium. Fast and lean.",
    "slug": "ublock-origin",
    "url": "https://github.com/gorhill/uBlock",
    "wikipedia_url": "https://en.wikipedia.org/wiki/UBlock#uBlock_Origin"
  },
  {
    "description": "Client-side encrypted image host web server.",
    "notes": "Up1 is a simple host that client-side encrypts images, text, and other data, and stores them, with the server knowing nothing about the contents. It has the ability to view images, text with syntax highlighting, short videos, and arbitrary binaries as downloadables.",
    "slug": "up1",
    "url": "https://github.com/Upload/Up1/blob/master/README.md",
    "wikipedia_url": ""
  },
  {
    "description": "wallabag is a self hostable application for saving web pages. Unlike other services, wallabag is free (as in freedom) and open source.",
    "slug": "wallabag",
    "url": "https://www.wallabag.org/",
    "wikipedia_url": ""
  },
  {
    "description": "Cliente de chat extensible y personalizable para los protocolos IRC y XMPP/Jabber.",
    "slug": "weechat",
    "url": "http://www.weechat.org/",
    "wikipedia_url": "https://en.wikipedia.org/wiki/WeeChat"
  },
  {
    "description": "The most comprehensive and integrated Free / Libre / Open Source software suite ever developed.",
    "slug": "wikisuite",
    "url": "http://wikisuite.org/",
    "wikipedia_url": ""
  },
  {
    "description": "Sitio web/blog CMS libre y auto-hospedado.",
    "notes": "WordPress does not encrypt any of your data by default.\n\nUsing avatars in WordPress will activate Gravatar, which which will send your email address to gravatar.com. Avatars are activated by default and can be turned off under “Settings > Discussion > Avatars”.\n\nThe default WordPress themes force your visitors to download Google Fonts. Consider switching to a completely self-hosted theme. You can also install the plugin <a href='http://wordpress.org/plugins/disable-google-fonts/'>“Disable Google Fonts”</a> to remove this vulnerability.",
    "slug": "wordpress",
    "url": "https://wordpress.org/",
    "wikipedia_url": "https://en.wikipedia.org/wiki/WordPress"
  },
  {
    "description": "Sistema auto-hospedado para manejo de multimedia.",
    "notes": "Zenphoto does not encrypt any of your data by default.",
    "slug": "zenphoto",
    "url": "http://www.zenphoto.org/",
    "wikipedia_url": ""
  }
]
